Digital logic/1041224/simulation/qsim/P1041217.msim.vcd
$comment
	File created using the following command:
		vcd file P1041217.msim.vcd -direction
$end
$date
	Thu Dec 24 11:52:55 2015
$end
$version
	ModelSim Version 10.1d
$end
$timescale
	1ps
$end
$scope module P1041217_vlg_vec_tst $end
$var reg 1 ! BUTT $end
$var reg 1 " CLK $end
$var wire 1 # o0 $end
$var wire 1 $ o1 $end
$var wire 1 % o2 $end
$var wire 1 & o3 $end
$var wire 1 ' o4 $end
$var wire 1 ( o5 $end
$var wire 1 ) o6 $end
$var wire 1 * o7 $end
$var wire 1 + o8 $end
$var wire 1 , o9 $end
$var wire 1 - sampler $end
$scope module i1 $end
$var wire 1 . gnd $end
$var wire 1 / vcc $end
$var wire 1 0 unknown $end
$var tri1 1 1 devclrn $end
$var tri1 1 2 devpor $end
$var tri1 1 3 devoe $end
$var wire 1 4 inst|20~combout $end
$var wire 1 5 inst5~combout $end
$var wire 1 6 CLK~combout $end
$var wire 1 7 BUTT~combout $end
$var wire 1 8 inst|6~regout $end
$var wire 1 9 inst|7~regout $end
$var wire 1 : inst|5~regout $end
$var wire 1 ; inst|3~regout $end
$var wire 1 < inst2|22~combout $end
$var wire 1 = inst2|21~combout $end
$var wire 1 > inst2|20~combout $end
$var wire 1 ? inst2|19~combout $end
$var wire 1 @ inst2|18~combout $end
$var wire 1 A inst2|17~combout $end
$var wire 1 B inst2|16~combout $end
$var wire 1 C inst2|15~combout $end
$var wire 1 D inst2|13~combout $end
$var wire 1 E inst2|14~combout $end
$upscope $end
$upscope $end
$enddefinitions $end
#0
$dumpvars
0!
0"
0#
1$
1%
1&
1'
1(
1)
1*
1+
1,
x-
0.
1/
x0
11
12
13
14
15
06
07
08
09
0:
0;
1<
0=
0>
0?
0@
0A
0B
0C
0D
0E
$end
#5000
1"
16
0-
05
#10000
0"
06
1-
15
19
1=
0<
04
0$
1#
#15000
1"
16
0-
05
#20000
0"
06
1-
15
09
0=
1<
14
1$
0#
18
1>
0<
0%
1#
#25000
1"
16
0-
05
#30000
0"
06
1-
15
19
1?
0>
04
0&
1%
#35000
1"
16
0-
05
#40000
1!
0"
17
06
1-
15
09
0?
1>
14
1&
0%
08
0>
1<
1%
0#
1:
1@
0<
0'
1#
#45000
1"
16
0-
#50000
0"
06
1-
#55000
1"
16
0-
#60000
0!
0"
07
06
1-
#65000
1"
16
0-
05
#70000
0"
06
1-
15
19
1A
0@
04
0(
1'
#75000
1"
16
0-
05
#80000
0"
06
1-
15
09
0A
1@
14
1(
0'
18
1B
0@
0)
1'
#85000
1"
16
0-
05
#90000
0"
06
1-
15
19
1C
0B
04
0*
1)
#95000
1"
16
0-
05
#100000
0"
06
1-
15
09
0C
1B
14
1*
0)
08
1;
0B
1)
0:
1D
0+
#105000
1"
16
0-
05
#110000
0"
06
1-
15
19
1E
0D
0,
1+
#115000
1"
16
0-
05
#120000
0"
06
1-
15
09
0E
1D
1,
0+
0;
0D
1<
1+
0#
#125000
1"
16
0-
05
#130000
0"
06
1-
15
19
1=
0<
04
0$
1#
#135000
1"
16
0-
05
#140000
0"
06
1-
15
09
0=
1<
14
1$
0#
18
1>
0<
0%
1#
#145000
1"
16
0-
05
#150000
0"
06
1-
15
19
1?
0>
04
0&
1%
#155000
1"
16
0-
05
#160000
0"
06
1-
15
09
0?
1>
14
1&
0%
08
0>
1<
1%
0#
1:
1@
0<
0'
1#
#165000
1"
16
0-
05
#170000
0"
06
1-
15
19
1A
0@
04
0(
1'
#175000
1"
16
0-
05
#180000
0"
06
1-
15
09
0A
1@
14
1(
0'
18
1B
0@
0)
1'
#185000
1"
16
0-
05
#190000
0"
06
1-
15
19
1C
0B
04
0*
1)
#195000
1"
16
0-
05
#200000
0"
06
1-
15
09
0C
1B
14
1*
0)
08
1;
0B
1)
0:
1D
0+
#205000
1"
16
0-
05
#210000
0"
06
1-
15
19
1E
0D
0,
1+
#215000
1"
16
0-
05
#220000
0"
06
1-
15
09
0E
1D
1,
0+
0;
0D
1<
1+
0#
#225000
1"
16
0-
05
#230000
0"
06
1-
15
19
1=
0<
04
0$
1#
#235000
1"
16
0-
05
#240000
0"
06
1-
15
09
0=
1<
14
1$
0#
18
1>
0<
0%
1#
#245000
1"
16
0-
05
#250000
0"
06
1-
15
19
1?
0>
04
0&
1%
#255000
1"
16
0-
05
#260000
0"
06
1-
15
09
0?
1>
14
1&
0%
08
0>
1<
1%
0#
1:
1@
0<
0'
1#
#265000
1"
16
0-
05
#270000
0"
06
1-
15
19
1A
0@
04
0(
1'
#275000
1"
16
0-
05
#280000
0"
06
1-
15
09
0A
1@
14
1(
0'
18
1B
0@
0)
1'
#285000
1"
16
0-
05
#290000
0"
06
1-
15
19
1C
0B
04
0*
1)
#295000
1"
16
0-
05
#300000
0"
06
1-
15
09
0C
1B
14
1*
0)
08
1;
0B
1)
0:
1D
0+
#305000
1"
16
0-
05
#310000
0"
06
1-
15
19
1E
0D
0,
1+
#315000
1"
16
0-
05
#320000
0"
06
1-
15
09
0E
1D
1,
0+
0;
0D
1<
1+
0#
#325000
1"
16
0-
05
#330000
0"
06
1-
15
19
1=
0<
04
0$
1#
#335000
1"
16
0-
05
#340000
0"
06
1-
15
09
0=
1<
14
1$
0#
18
1>
0<
0%
1#
#345000
1"
16
0-
05
#350000
0"
06
1-
15
19
1?
0>
04
0&
1%
#355000
1"
16
0-
05
#360000
0"
06
1-
15
09
0?
1>
14
1&
0%
08
0>
1<
1%
0#
1:
1@
0<
0'
1#
#365000
1"
16
0-
05
#370000
0"
06
1-
15
19
1A
0@
04
0(
1'
#375000
1"
16
0-
05
#380000
0"
06
1-
15
09
0A
1@
14
1(
0'
18
1B
0@
0)
1'
#385000
1"
16
0-
05
#390000
0"
06
1-
15
19
1C
0B
04
0*
1)
#395000
1"
16
0-
05
#400000
0"
06
1-
15
09
0C
1B
14
1*
0)
08
1;
0B
1)
0:
1D
0+
#405000
1"
16
0-
05
#410000
0"
06
1-
15
19
1E
0D
0,
1+
#415000
1"
16
0-
05
#420000
0"
06
1-
15
09
0E
1D
1,
0+
0;
0D
1<
1+
0#
#425000
1"
16
0-
05
#430000
0"
06
1-
15
19
1=
0<
04
0$
1#
#435000
1"
16
0-
05
#440000
0"
06
1-
15
09
0=
1<
14
1$
0#
18
1>
0<
0%
1#
#445000
1"
16
0-
05
#450000
0"
06
1-
15
19
1?
0>
04
0&
1%
#455000
1"
16
0-
05
#460000
0"
06
1-
15
09
0?
1>
14
1&
0%
08
0>
1<
1%
0#
1:
1@
0<
0'
1#
#465000
1"
16
0-
05
#470000
0"
06
1-
15
19
1A
0@
04
0(
1'
#475000
1"
16
0-
05
#480000
0"
06
1-
15
09
0A
1@
14
1(
0'
18
1B
0@
0)
1'
#485000
1"
16
0-
05
#490000
0"
06
1-
15
19
1C
0B
04
0*
1)
#495000
1"
16
0-
05
#500000
0"
06
1-
15
09
0C
1B
14
1*
0)
08
1;
0B
1)
0:
1D
0+
#505000
1"
16
0-
05
#510000
0"
06
1-
15
19
1E
0D
0,
1+
#515000
1"
16
0-
05
#520000
0"
06
1-
15
09
0E
1D
1,
0+
0;
0D
1<
1+
0#
#525000
1"
16
0-
05
#530000
0"
06
1-
15
19
1=
0<
04
0$
1#
#535000
1"
16
0-
05
#540000
0"
06
1-
15
09
0=
1<
14
1$
0#
18
1>
0<
0%
1#
#545000
1"
16
0-
05
#550000
0"
06
1-
15
19
1?
0>
04
0&
1%
#555000
1"
16
0-
05
#560000
0"
06
1-
15
09
0?
1>
14
1&
0%
08
0>
1<
1%
0#
1:
1@
0<
0'
1#
#565000
1"
16
0-
05
#570000
0"
06
1-
15
19
1A
0@
04
0(
1'
#575000
1"
16
0-
05
#580000
0"
06
1-
15
09
0A
1@
14
1(
0'
18
1B
0@
0)
1'
#585000
1"
16
0-
05
#590000
0"
06
1-
15
19
1C
0B
04
0*
1)
#595000
1"
16
0-
05
#600000
0"
06
1-
15
09
0C
1B
14
1*
0)
08
1;
0B
1)
0:
1D
0+
#605000
1"
16
0-
05
#610000
0"
06
1-
15
19
1E
0D
0,
1+
#615000
1"
16
0-
05
#620000
0"
06
1-
15
09
0E
1D
1,
0+
0;
0D
1<
1+
0#
#625000
1"
16
0-
05
#630000
0"
06
1-
15
19
1=
0<
04
0$
1#
#635000
1"
16
0-
05
#640000
0"
06
1-
15
09
0=
1<
14
1$
0#
18
1>
0<
0%
1#
#645000
1"
16
0-
05
#650000
0"
06
1-
15
19
1?
0>
04
0&
1%
#655000
1"
16
0-
05
#660000
0"
06
1-
15
09
0?
1>
14
1&
0%
08
0>
1<
1%
0#
1:
1@
0<
0'
1#
#665000
1"
16
0-
05
#670000
0"
06
1-
15
19
1A
0@
04
0(
1'
#675000
1"
16
0-
05
#680000
0"
06
1-
15
09
0A
1@
14
1(
0'
18
1B
0@
0)
1'
#685000
1"
16
0-
05
#690000
0"
06
1-
15
19
1C
0B
04
0*
1)
#695000
1"
16
0-
05
#700000
0"
06
1-
15
09
0C
1B
14
1*
0)
08
1;
0B
1)
0:
1D
0+
#705000
1"
16
0-
05
#710000
0"
06
1-
15
19
1E
0D
0,
1+
#715000
1"
16
0-
05
#720000
0"
06
1-
15
09
0E
1D
1,
0+
0;
0D
1<
1+
0#
#725000
1"
16
0-
05
#730000
0"
06
1-
15
19
1=
0<
04
0$
1#
#735000
1"
16
0-
05
#740000
0"
06
1-
15
09
0=
1<
14
1$
0#
18
1>
0<
0%
1#
#745000
1"
16
0-
05
#750000
0"
06
1-
15
19
1?
0>
04
0&
1%
#755000
1"
16
0-
05
#760000
0"
06
1-
15
09
0?
1>
14
1&
0%
08
0>
1<
1%
0#
1:
1@
0<
0'
1#
#765000
1"
16
0-
05
#770000
0"
06
1-
15
19
1A
0@
04
0(
1'
#775000
1"
16
0-
05
#780000
0"
06
1-
15
09
0A
1@
14
1(
0'
18
1B
0@
0)
1'
#785000
1"
16
0-
05
#790000
0"
06
1-
15
19
1C
0B
04
0*
1)
#795000
1"
16
0-
05
